…
``` r
#create new data.frame called gpmdr that has a renamed column "NewName""
gpmdr <- gapminder %>% 
  rename("NewName"= "lifeExp")
```

The `mutate` command allows you to create new variable from existing ones and add it to the data.frame.

``` r
#Add a new column "lifeExp_with_chocolate_cake" to gapminder
gapminder %>% 
  mutate(lifeExp_with_chocolate_cake = lifeExp + 20)
```

    ## # A tibble: 1,704 x 7
    ##    country   continent  year lifeExp     pop gdpPercap lifeExp_with_choco~
    ##    <fct>     <fct>     <int>   <dbl>   <int>     <dbl>               <dbl>
    ##  1 Afghanis~ Asia       1952    28.8  8.43e6      779.                48.8
    ##  2 Afghanis~ Asia       1957    30.3  9.24e6      821.                50.3
    ##  3 Afghanis~ Asia       1962    32.0  1.03e7      853.                52.0
    ##  4 Afghanis~ Asia       1967    34.0  1.15e7      836.                54.0
    ##  5 Afghanis~ Asia       1972    36.1  1.31e7      740.                56.1
    ##  6 Afghanis~ Asia       1977    38.4  1.49e7      786.                58.4
    ##  7 Afghanis~ Asia       1982    39.9  1.29e7      978.                59.9
    ##  8 Afghanis~ Asia       1987    40.8  1.39e7      852.                60.8
    ##  9 Afghanis~ Asia       1992    41.7  1.63e7      649.                61.7
    ## 10 Afghanis~ Asia       1997    41.8  2.22e7      635.                61.8
    ## # ... with 1,694 more rows
